{
  "openapi": "3.0.0",
  "info": {
    "title": "Cats example",
    "description": "The cats API description",
    "version": "1.0",
    "contact": {}
  },
  "tags": [],
  "servers": [],
  "components": {
    "securitySchemes": {
      "bearer": {
        "scheme": "bearer",
        "bearerFormat": "JWT",
        "type": "http"
      }
    },
    "schemas": {
      "CatDto": {
        "type": "object",
        "properties": {
          "name": {
            "type": "string"
          },
          "num": {
            "type": "number"
          },
          "kind": {
            "type": "string"
          },
          "aDate": {
            "format": "date-time",
            "type": "string"
          }
        },
        "required": [
          "name",
          "num"
        ]
      },
      "Dto": {
        "type": "object",
        "properties": {
          "name": {
            "type": "string"
          },
          "dto": {
            "$ref": "#/components/schemas/CatDto"
          }
        },
        "required": [
          "name"
        ]
      }
    }
  },
  "paths": {
    "/api/one": {
      "get": {
        "operationId": "AppController_getHello",
        "parameters": [],
        "responses": {
          "200": {
            "description": "",
            "content": {
              "application/json": {
                "schema": {
                  "type": "array",
                  "items": {
                    "type": "number"
                  }
                }
              }
            }
          }
        },
        "security": [
          {
            "oauth2": [
              "pets:write"
            ]
          }
        ]
      }
    },
    "/api/users": {
      "get": {
        "operationId": "UsersController_getHello",
        "parameters": [],
        "responses": {
          "200": {
            "description": "",
            "content": {
              "application/json": {
                "schema": {
                  "$ref": "#/components/schemas/Dto"
                }
              }
            }
          }
        },
        "tags": [
          "users"
        ]
      },
      "post": {
        "operationId": "UsersController_postItem",
        "parameters": [
          {
            "name": "foo",
            "required": false,
            "in": "query",
            "schema": {
              "type": "string"
            }
          }
        ],
        "responses": {
          "200": {
            "description": "",
            "content": {
              "application/json": {
                "schema": {
                  "$ref": "#/components/schemas/Dto"
                }
              }
            }
          }
        },
        "tags": [
          "users"
        ]
      }
    },
    "/api/users/{id}": {
      "get": {
        "operationId": "UsersController_getItem",
        "parameters": [
          {
            "name": "id",
            "required": true,
            "in": "path",
            "schema": {
              "type": "string"
            }
          }
        ],
        "responses": {
          "200": {
            "description": "",
            "content": {
              "application/json": {
                "schema": {
                  "$ref": "#/components/schemas/Dto"
                }
              }
            }
          }
        },
        "tags": [
          "users"
        ]
      }
    }
  }
}